{
  "project_info": {
    "project_number": "848711411525",
    "firebase_url": "https://fruitiniuswinners.firebaseio.com",
    "project_id": "fruitiniuswinners",
    "storage_bucket": "fruitiniuswinners.appspot.com"
  },
  "client": [
    {
      "client_info": {
        "mobilesdk_app_id": "1:848711411525:android:bbef7603ee1ac90da4402c",
        "android_client_info": {
          "package_name": "kz.myrza.fruitiniuswinners"
        }
      },
      "oauth_client": [
        {
          "client_id": "848711411525-3d24k0ot1nrlsqa4db83csbctotq8ppb.apps.googleusercontent.com",
          "client_type": 1,
          "android_info": {
            "package_name": "kz.myrza.fruitiniuswinners",
            "certificate_hash": "0b06ab56f07c35561debaf2cb6aa25c9da3d80d4"
          }
        },
        {
          "client_id": "848711411525-u1l1m1f1ivk3nf6mij260j9uira6cin5.apps.googleusercontent.com",
          "client_type": 3
        }
      ],
      "api_key": [
        {
          "current_key": "AIzaSyBxGIDZFDDElPAWzk8YmjTk4K8_YyYYqzw"
        }
      ],
      "services": {
        "appinvite_service": {
          "other_platform_oauth_client": [
            {
              "client_id": "848711411525-u1l1m1f1ivk3nf6mij260j9uira6cin5.apps.googleusercontent.com",
              "client_type": 3
            }
          ]
        }
      }
    }
  ],
  "configuration_version": "1"
}